…
``` r
bans2018 <-
  full_join(bans2018_df1, bans2018_df2) %>% 
  mutate(threshold = ifelse(is.na(threshold), "None", threshold))
```

    ## Joining, by = c("state", "state_abv", "year", "abortion_restricted")

``` r
bans2018 
```

    ## # A tibble: 192 × 5
    ##    state   state_abv  year abortion_restricted threshold                        
    ##    <chr>   <chr>     <dbl> <chr>               <chr>                            
    ##  1 Alabama AL         2018 1                   20 weeks post-fertilization (22 …
    ##  2 Alabama AL         2018 1                   Fetal viability                  
    ##  3 Alabama AL         2019 1                   20 weeks post-fertilization (22 …
    ##  4 Alabama AL         2019 1                   Fetal viability                  
    ##  5 Alabama AL         2019 1                   Conception                       
    ##  6 Alaska  AK         2018 0                   None                             
    ##  7 Arizona AZ         2018 1                   18 weeks post-fertilization (20 …
    ##  8 Arizona AZ         2018 1                   Fetal viability                  
    ##  9 Arizona AZ         2021 1                   18 weeks post-fertilization (20 …
    ## 10 Arizona AZ         2021 1                   Fetal viability                  
    ## # … with 182 more rows
…
bans2022
```

    ## # A tibble: 51 × 5
    ##    state                abortion_restricted threshold              state…¹  year
    ##    <chr>                <chr>               <chr>                  <chr>   <dbl>
    ##  1 Alabama              1                   Conception             AL       2022
    ##  2 Alaska               0                   None                   AK       2022
    ##  3 Arizona              1                   Fetal viability        AZ       2022
    ##  4 Arkansas             1                   Conception             AR       2022
    ##  5 California           1                   Fetal viability        CA       2022
    ##  6 Colorado             0                   None                   CO       2022
    ##  7 Connecticut          1                   Fetal viability        CT       2022
    ##  8 Delaware             1                   Fetal viability        DE       2022
    ##  9 District of Columbia 0                   None                   DC       2022
    ## 10 Florida              1                   13 weeks post-fertili… FL       2022
    ## # … with 41 more rows, and abbreviated variable name ¹​state_abv
…
``` r
abortion_bans <-
  full_join(bans2018, bans2022)%>% 
  arrange(state, year) %>% 
  write_csv("data/abortion_bans_final.csv")
```

    ## Joining, by = c("state", "state_abv", "year", "abortion_restricted",
    ## "threshold")

``` r
abortion_bans
```

    ## # A tibble: 243 × 5
    ##    state   state_abv  year abortion_restricted threshold                        
    ##    <chr>   <chr>     <dbl> <chr>               <chr>                            
    ##  1 Alabama AL         2018 1                   20 weeks post-fertilization (22 …
    ##  2 Alabama AL         2018 1                   Fetal viability                  
    ##  3 Alabama AL         2019 1                   20 weeks post-fertilization (22 …
    ##  4 Alabama AL         2019 1                   Fetal viability                  
    ##  5 Alabama AL         2019 1                   Conception                       
    ##  6 Alabama AL         2022 1                   Conception                       
    ##  7 Alaska  AK         2018 0                   None                             
    ##  8 Alaska  AK         2022 0                   None                             
    ##  9 Arizona AZ         2018 1                   18 weeks post-fertilization (20 …
    ## 10 Arizona AZ         2018 1                   Fetal viability                  
    ## # … with 233 more rows
